$comment
	File created using the following command:
		vcd file part5.msim.vcd -direction
$end
$date
	Wed Apr 15 23:13:01 2015
$end
$version
	ModelSim Version 10.3c
$end
$timescale
	1ps
$end

$scope module part5_vlg_vec_tst $end
$var reg 2 ! KEY [1:0] $end
$var reg 16 " SW [15:0] $end
$var wire 1 # HEX0 [0] $end
$var wire 1 $ HEX0 [1] $end
$var wire 1 % HEX0 [2] $end
$var wire 1 & HEX0 [3] $end
$var wire 1 ' HEX0 [4] $end
$var wire 1 ( HEX0 [5] $end
$var wire 1 ) HEX0 [6] $end
$var wire 1 * HEX1 [0] $end
$var wire 1 + HEX1 [1] $end
$var wire 1 , HEX1 [2] $end
$var wire 1 - HEX1 [3] $end
$var wire 1 . HEX1 [4] $end
$var wire 1 / HEX1 [5] $end
$var wire 1 0 HEX1 [6] $end
$var wire 1 1 HEX2 [0] $end
$var wire 1 2 HEX2 [1] $end
$var wire 1 3 HEX2 [2] $end
$var wire 1 4 HEX2 [3] $end
$var wire 1 5 HEX2 [4] $end
$var wire 1 6 HEX2 [5] $end
$var wire 1 7 HEX2 [6] $end
$var wire 1 8 HEX3 [0] $end
$var wire 1 9 HEX3 [1] $end
$var wire 1 : HEX3 [2] $end
$var wire 1 ; HEX3 [3] $end
$var wire 1 < HEX3 [4] $end
$var wire 1 = HEX3 [5] $end
$var wire 1 > HEX3 [6] $end
$var wire 1 ? HEX4 [0] $end
$var wire 1 @ HEX4 [1] $end
$var wire 1 A HEX4 [2] $end
$var wire 1 B HEX4 [3] $end
$var wire 1 C HEX4 [4] $end
$var wire 1 D HEX4 [5] $end
$var wire 1 E HEX4 [6] $end
$var wire 1 F HEX5 [0] $end
$var wire 1 G HEX5 [1] $end
$var wire 1 H HEX5 [2] $end
$var wire 1 I HEX5 [3] $end
$var wire 1 J HEX5 [4] $end
$var wire 1 K HEX5 [5] $end
$var wire 1 L HEX5 [6] $end
$var wire 1 M HEX6 [0] $end
$var wire 1 N HEX6 [1] $end
$var wire 1 O HEX6 [2] $end
$var wire 1 P HEX6 [3] $end
$var wire 1 Q HEX6 [4] $end
$var wire 1 R HEX6 [5] $end
$var wire 1 S HEX6 [6] $end
$var wire 1 T HEX7 [0] $end
$var wire 1 U HEX7 [1] $end
$var wire 1 V HEX7 [2] $end
$var wire 1 W HEX7 [3] $end
$var wire 1 X HEX7 [4] $end
$var wire 1 Y HEX7 [5] $end
$var wire 1 Z HEX7 [6] $end
$var wire 1 [ sampler $end

$scope module i1 $end
$var wire 1 \ gnd $end
$var wire 1 ] vcc $end
$var wire 1 ^ unknown $end
$var tri1 1 _ devclrn $end
$var tri1 1 ` devpor $end
$var tri1 1 a devoe $end
$var wire 1 b KEY[1]~input_o $end
$var wire 1 c HEX0[6]~output_o $end
$var wire 1 d HEX0[5]~output_o $end
$var wire 1 e HEX0[4]~output_o $end
$var wire 1 f HEX0[3]~output_o $end
$var wire 1 g HEX0[2]~output_o $end
$var wire 1 h HEX0[1]~output_o $end
$var wire 1 i HEX0[0]~output_o $end
$var wire 1 j HEX1[6]~output_o $end
$var wire 1 k HEX1[5]~output_o $end
$var wire 1 l HEX1[4]~output_o $end
$var wire 1 m HEX1[3]~output_o $end
$var wire 1 n HEX1[2]~output_o $end
$var wire 1 o HEX1[1]~output_o $end
$var wire 1 p HEX1[0]~output_o $end
$var wire 1 q HEX2[6]~output_o $end
$var wire 1 r HEX2[5]~output_o $end
$var wire 1 s HEX2[4]~output_o $end
$var wire 1 t HEX2[3]~output_o $end
$var wire 1 u HEX2[2]~output_o $end
$var wire 1 v HEX2[1]~output_o $end
$var wire 1 w HEX2[0]~output_o $end
$var wire 1 x HEX3[6]~output_o $end
$var wire 1 y HEX3[5]~output_o $end
$var wire 1 z HEX3[4]~output_o $end
$var wire 1 { HEX3[3]~output_o $end
$var wire 1 | HEX3[2]~output_o $end
$var wire 1 } HEX3[1]~output_o $end
$var wire 1 ~ HEX3[0]~output_o $end
$var wire 1 !! HEX4[6]~output_o $end
$var wire 1 "! HEX4[5]~output_o $end
$var wire 1 #! HEX4[4]~output_o $end
$var wire 1 $! HEX4[3]~output_o $end
$var wire 1 %! HEX4[2]~output_o $end
$var wire 1 &! HEX4[1]~output_o $end
$var wire 1 '! HEX4[0]~output_o $end
$var wire 1 (! HEX5[6]~output_o $end
$var wire 1 )! HEX5[5]~output_o $end
$var wire 1 *! HEX5[4]~output_o $end
$var wire 1 +! HEX5[3]~output_o $end
$var wire 1 ,! HEX5[2]~output_o $end
$var wire 1 -! HEX5[1]~output_o $end
$var wire 1 .! HEX5[0]~output_o $end
$var wire 1 /! HEX6[6]~output_o $end
$var wire 1 0! HEX6[5]~output_o $end
$var wire 1 1! HEX6[4]~output_o $end
$var wire 1 2! HEX6[3]~output_o $end
$var wire 1 3! HEX6[2]~output_o $end
$var wire 1 4! HEX6[1]~output_o $end
$var wire 1 5! HEX6[0]~output_o $end
$var wire 1 6! HEX7[6]~output_o $end
$var wire 1 7! HEX7[5]~output_o $end
$var wire 1 8! HEX7[4]~output_o $end
$var wire 1 9! HEX7[3]~output_o $end
$var wire 1 :! HEX7[2]~output_o $end
$var wire 1 ;! HEX7[1]~output_o $end
$var wire 1 <! HEX7[0]~output_o $end
$var wire 1 =! SW[1]~input_o $end
$var wire 1 >! SW[2]~input_o $end
$var wire 1 ?! SW[3]~input_o $end
$var wire 1 @! SW[0]~input_o $end
$var wire 1 A! decode0|display[6]~0_combout $end
$var wire 1 B! decode0|display[5]~1_combout $end
$var wire 1 C! decode0|display[4]~2_combout $end
$var wire 1 D! decode0|display[3]~3_combout $end
$var wire 1 E! decode0|display[2]~4_combout $end
$var wire 1 F! decode0|display[1]~5_combout $end
$var wire 1 G! decode0|display[0]~6_combout $end
$var wire 1 H! SW[6]~input_o $end
$var wire 1 I! SW[7]~input_o $end
$var wire 1 J! SW[4]~input_o $end
$var wire 1 K! SW[5]~input_o $end
$var wire 1 L! decode1|display[6]~0_combout $end
$var wire 1 M! decode1|display[5]~1_combout $end
$var wire 1 N! decode1|display[4]~2_combout $end
$var wire 1 O! decode1|display[3]~3_combout $end
$var wire 1 P! decode1|display[2]~4_combout $end
$var wire 1 Q! decode1|display[1]~5_combout $end
$var wire 1 R! decode1|display[0]~6_combout $end
$var wire 1 S! SW[11]~input_o $end
$var wire 1 T! SW[8]~input_o $end
$var wire 1 U! SW[10]~input_o $end
$var wire 1 V! SW[9]~input_o $end
$var wire 1 W! decode2|display[6]~0_combout $end
$var wire 1 X! decode2|display[5]~1_combout $end
$var wire 1 Y! decode2|display[4]~2_combout $end
$var wire 1 Z! decode2|display[3]~3_combout $end
$var wire 1 [! decode2|display[2]~4_combout $end
$var wire 1 \! decode2|display[1]~5_combout $end
$var wire 1 ]! decode2|display[0]~6_combout $end
$var wire 1 ^! SW[14]~input_o $end
$var wire 1 _! SW[15]~input_o $end
$var wire 1 `! SW[12]~input_o $end
$var wire 1 a! SW[13]~input_o $end
$var wire 1 b! decode3|display[6]~0_combout $end
$var wire 1 c! decode3|display[5]~1_combout $end
$var wire 1 d! decode3|display[4]~2_combout $end
$var wire 1 e! decode3|display[3]~3_combout $end
$var wire 1 f! decode3|display[2]~4_combout $end
$var wire 1 g! decode3|display[1]~5_combout $end
$var wire 1 h! decode3|display[0]~6_combout $end
$var wire 1 i! KEY[0]~input_o $end
$var wire 1 j! KEY[0]~inputclkctrl_outclk $end
$var wire 1 k! latch3|Q~combout $end
$var wire 1 l! latch0|Q~combout $end
$var wire 1 m! latch2|Q~combout $end
$var wire 1 n! latch1|Q~combout $end
$var wire 1 o! decode4|display[6]~0_combout $end
$var wire 1 p! decode4|display[5]~1_combout $end
$var wire 1 q! decode4|display[4]~2_combout $end
$var wire 1 r! decode4|display[3]~3_combout $end
$var wire 1 s! decode4|display[2]~4_combout $end
$var wire 1 t! decode4|display[1]~5_combout $end
$var wire 1 u! decode4|display[0]~6_combout $end
$var wire 1 v! latch5|Q~combout $end
$var wire 1 w! latch4|Q~combout $end
$var wire 1 x! latch6|Q~combout $end
$var wire 1 y! latch7|Q~combout $end
$var wire 1 z! decode5|display[6]~0_combout $end
$var wire 1 {! decode5|display[5]~1_combout $end
$var wire 1 |! decode5|display[4]~2_combout $end
$var wire 1 }! decode5|display[3]~3_combout $end
$var wire 1 ~! decode5|display[2]~4_combout $end
$var wire 1 !" decode5|display[1]~5_combout $end
$var wire 1 "" decode5|display[0]~6_combout $end
$var wire 1 #" latch9|Q~combout $end
$var wire 1 $" latch8|Q~combout $end
$var wire 1 %" latch10|Q~combout $end
$var wire 1 &" latch11|Q~combout $end
$var wire 1 '" decode6|display[6]~0_combout $end
$var wire 1 (" decode6|display[5]~1_combout $end
$var wire 1 )" decode6|display[4]~2_combout $end
$var wire 1 *" decode6|display[3]~3_combout $end
$var wire 1 +" decode6|display[2]~4_combout $end
$var wire 1 ," decode6|display[1]~5_combout $end
$var wire 1 -" decode6|display[0]~6_combout $end
$var wire 1 ." latch13|Q~combout $end
$var wire 1 /" latch12|Q~combout $end
$var wire 1 0" latch14|Q~combout $end
$var wire 1 1" latch15|Q~combout $end
$var wire 1 2" decode7|display[6]~0_combout $end
$var wire 1 3" decode7|display[5]~1_combout $end
$var wire 1 4" decode7|display[4]~2_combout $end
$var wire 1 5" decode7|display[3]~3_combout $end
$var wire 1 6" decode7|display[2]~4_combout $end
$var wire 1 7" decode7|display[1]~5_combout $end
$var wire 1 8" decode7|display[0]~6_combout $end
$upscope $end
$upscope $end
$enddefinitions $end
#0
$dumpvars
b0 !
b0 "
1)
0(
0'
0&
0%
0$
0#
10
0/
0.
0-
0,
0+
0*
17
06
05
04
03
02
01
1>
0=
0<
0;
0:
09
08
xE
xD
xC
xB
xA
x@
x?
xL
xK
xJ
xI
xH
xG
xF
xS
xR
xQ
xP
xO
xN
xM
xZ
xY
xX
xW
xV
xU
xT
x[
0\
1]
x^
1_
1`
1a
0b
1c
0d
0e
0f
0g
0h
0i
1j
0k
0l
0m
0n
0o
0p
1q
0r
0s
0t
0u
0v
0w
1x
0y
0z
0{
0|
0}
0~
x!!
x"!
x#!
x$!
x%!
x&!
x'!
x(!
x)!
x*!
x+!
x,!
x-!
x.!
x/!
x0!
x1!
x2!
x3!
x4!
x5!
x6!
x7!
x8!
x9!
x:!
x;!
x<!
0=!
0>!
0?!
0@!
1A!
0B!
0C!
0D!
1E!
0F!
0G!
0H!
0I!
0J!
0K!
1L!
0M!
0N!
0O!
1P!
0Q!
0R!
0S!
0T!
0U!
0V!
1W!
0X!
0Y!
0Z!
1[!
0\!
0]!
0^!
0_!
0`!
0a!
1b!
0c!
0d!
0e!
1f!
0g!
0h!
0i!
0j!
xk!
xl!
xm!
xn!
xo!
xp!
xq!
xr!
xs!
xt!
xu!
xv!
xw!
xx!
xy!
xz!
x{!
x|!
x}!
x~!
x!"
x""
x#"
x$"
x%"
x&"
x'"
x("
x)"
x*"
x+"
x,"
x-"
x."
x/"
x0"
x1"
x2"
x3"
x4"
x5"
x6"
x7"
x8"
$end
#20000
b1 "
1@!
0[
1G!
1D!
1C!
1B!
1d
1e
1f
1i
1(
1'
1&
1#
#60000
b1 !
1i!
1j!
1[
01"
00"
0/"
0."
0&"
0%"
0$"
0#"
0y!
0x!
0w!
0v!
0n!
0m!
1l!
0k!
16"
1+"
1~!
1s!
08"
07"
05"
04"
03"
12"
0-"
0,"
0*"
0)"
0("
1'"
0""
0!"
0}!
0|!
0{!
1z!
1u!
0t!
1r!
1q!
1p!
1o!
1!!
1"!
1#!
1$!
0&!
1'!
1(!
0)!
0*!
0+!
0-!
0.!
1/!
00!
01!
02!
04!
05!
16!
07!
08!
09!
0;!
0<!
0%!
0,!
03!
0:!
1E
1D
1C
1B
0@
1?
1L
0K
0J
0I
0G
0F
1S
0R
0Q
0P
0N
0M
1Z
0Y
0X
0W
0U
0T
0A
0H
0O
0V
#120000
b0 !
0i!
0j!
0[
#130000
b0 "
0@!
1[
0G!
0D!
0C!
0B!
0d
0e
0f
0i
0(
0'
0&
0#
#270000
b1 "
1@!
0[
1G!
1D!
1C!
1B!
1d
1e
1f
1i
1(
1'
1&
1#
#360000
b0 "
0@!
1[
0G!
0D!
0C!
0B!
0d
0e
0f
0i
0(
0'
0&
0#
#1000000
