\relax 
\@writefile{lof}{\contentsline {figure}{\numberline {1}{\ignorespaces SR Latch}}{1}}
\@writefile{lof}{\contentsline {figure}{\numberline {2}{\ignorespaces D Latch}}{2}}
\@writefile{lof}{\contentsline {figure}{\numberline {3}{\ignorespaces Master \& Slave D Latch Flip-flop}}{2}}
\@writefile{lof}{\contentsline {figure}{\numberline {4}{\ignorespaces Latches and Triggers Demonstration}}{3}}
\@writefile{lot}{\contentsline {table}{\numberline {1}{\ignorespaces Hex Decoder for 7-segment Display}}{3}}
\gdef\minted@oldcachelist{,
  default.pygstyle,
  0CE9946793EC7EC7BBC4AD92424B2B9687B8B134E04AA1298582D516DB981BCA.pygtex,
  6FF301923385D000726D33CB2FA79638D9F3DBC3AAE1F323CF7DF37053781160.pygtex,
  3E81306E2DD283E99265321C1FDD9FF71867AE175D7B26A5791BC694C8085DB2.pygtex,
  70EE70076830B233DBC326AC40278B5B1C601D6BAED45771203E3147CD322917.pygtex,
  692502E2E287077F147676BEB164A4F25C71B6CD6B7421453C5897A85454A323.pygtex,
  C11742E4B534C6922120568D48F4F7CA75C3BBFBC5385B8CB6E0E109F0E657B8.pygtex}
