\relax 
\@writefile{lof}{\contentsline {figure}{\numberline {1}{\ignorespaces 8-bit wide 2-to-1 mux}}{2}}
\@writefile{lof}{\contentsline {figure}{\numberline {2}{\ignorespaces 3-bit wide 5-to-1 mux}}{2}}
\@writefile{lof}{\contentsline {figure}{\numberline {3}{\ignorespaces Connects Switches to LEDs}}{4}}
\@writefile{lof}{\contentsline {figure}{\numberline {4}{\ignorespaces 1-bit 2-to-1 mux}}{4}}
\@writefile{lof}{\contentsline {figure}{\numberline {5}{\ignorespaces 8-bit wide 2-to-1 mux}}{4}}
\@writefile{lof}{\contentsline {figure}{\numberline {6}{\ignorespaces 1-bit wide 5-to-1 mux}}{5}}
\@writefile{lof}{\contentsline {figure}{\numberline {7}{\ignorespaces 3-bit wide 5-to-1 mux}}{5}}
\gdef\minted@oldcachelist{,
  default.pygstyle,
  8BDCB345EA0C5B53451A75B0AE98B1FDBD35B63E7533FA544AAE956E657AD88E.pygtex,
  3EA130405DD07C65BAFBA3015EF76F60318EF68E3052611A9512A6F45D7A8670.pygtex,
  0D4FE7601E2DBB26740A66F2B1FC9056A876C253D18FC43F44B517E3FA2DE238.pygtex,
  8BDD28B1D426DB13073C053A74B6B41D0D679721DF171F019206B3048F08408D.pygtex,
  9BA24F56A9761F8724CB1901273F1019C65EB760333303EF563163145C6EBCB1.pygtex,
  8093D253E9845DDB84E6DB10DC30379449A0FEEE0DD3D7C48BC2771D88560093.pygtex,
  CD6D9C41DA130D0C0568A327837F93B011EFDED2B128E05DD6705402111118C1.pygtex}
\@writefile{lof}{\contentsline {figure}{\numberline {8}{\ignorespaces 7-segment Display Decoder}}{6}}
\@writefile{lof}{\contentsline {figure}{\numberline {9}{\ignorespaces 5-to-1 Multiplexer with 7 Segment Decoder}}{7}}
