$comment
	File created using the following command:
		vcd file part1.msim.vcd -direction
$end
$date
	Tue Apr 21 23:15:57 2015
$end
$version
	ModelSim Version 10.3c
$end
$timescale
	1ps
$end

$scope module part1_vlg_vec_tst $end
$var reg 2 ! KEY [1:0] $end
$var reg 2 " SW [1:0] $end
$var wire 1 # HEX0 [0] $end
$var wire 1 $ HEX0 [1] $end
$var wire 1 % HEX0 [2] $end
$var wire 1 & HEX0 [3] $end
$var wire 1 ' HEX0 [4] $end
$var wire 1 ( HEX0 [5] $end
$var wire 1 ) HEX0 [6] $end
$var wire 1 * HEX1 [0] $end
$var wire 1 + HEX1 [1] $end
$var wire 1 , HEX1 [2] $end
$var wire 1 - HEX1 [3] $end
$var wire 1 . HEX1 [4] $end
$var wire 1 / HEX1 [5] $end
$var wire 1 0 HEX1 [6] $end
$var wire 1 1 HEX2 [0] $end
$var wire 1 2 HEX2 [1] $end
$var wire 1 3 HEX2 [2] $end
$var wire 1 4 HEX2 [3] $end
$var wire 1 5 HEX2 [4] $end
$var wire 1 6 HEX2 [5] $end
$var wire 1 7 HEX2 [6] $end
$var wire 1 8 HEX3 [0] $end
$var wire 1 9 HEX3 [1] $end
$var wire 1 : HEX3 [2] $end
$var wire 1 ; HEX3 [3] $end
$var wire 1 < HEX3 [4] $end
$var wire 1 = HEX3 [5] $end
$var wire 1 > HEX3 [6] $end
$var wire 1 ? LEDR [15] $end
$var wire 1 @ LEDR [14] $end
$var wire 1 A LEDR [13] $end
$var wire 1 B LEDR [12] $end
$var wire 1 C LEDR [11] $end
$var wire 1 D LEDR [10] $end
$var wire 1 E LEDR [9] $end
$var wire 1 F LEDR [8] $end
$var wire 1 G LEDR [7] $end
$var wire 1 H LEDR [6] $end
$var wire 1 I LEDR [5] $end
$var wire 1 J LEDR [4] $end
$var wire 1 K LEDR [3] $end
$var wire 1 L LEDR [2] $end
$var wire 1 M LEDR [1] $end
$var wire 1 N LEDR [0] $end
$var wire 1 O sampler $end

$scope module i1 $end
$var wire 1 P gnd $end
$var wire 1 Q vcc $end
$var wire 1 R unknown $end
$var tri1 1 S devclrn $end
$var tri1 1 T devpor $end
$var tri1 1 U devoe $end
$var wire 1 V KEY[1]~input_o $end
$var wire 1 W LEDR[0]~output_o $end
$var wire 1 X LEDR[1]~output_o $end
$var wire 1 Y LEDR[2]~output_o $end
$var wire 1 Z LEDR[3]~output_o $end
$var wire 1 [ LEDR[4]~output_o $end
$var wire 1 \ LEDR[5]~output_o $end
$var wire 1 ] LEDR[6]~output_o $end
$var wire 1 ^ LEDR[7]~output_o $end
$var wire 1 _ LEDR[8]~output_o $end
$var wire 1 ` LEDR[9]~output_o $end
$var wire 1 a LEDR[10]~output_o $end
$var wire 1 b LEDR[11]~output_o $end
$var wire 1 c LEDR[12]~output_o $end
$var wire 1 d LEDR[13]~output_o $end
$var wire 1 e LEDR[14]~output_o $end
$var wire 1 f LEDR[15]~output_o $end
$var wire 1 g HEX0[6]~output_o $end
$var wire 1 h HEX0[5]~output_o $end
$var wire 1 i HEX0[4]~output_o $end
$var wire 1 j HEX0[3]~output_o $end
$var wire 1 k HEX0[2]~output_o $end
$var wire 1 l HEX0[1]~output_o $end
$var wire 1 m HEX0[0]~output_o $end
$var wire 1 n HEX1[6]~output_o $end
$var wire 1 o HEX1[5]~output_o $end
$var wire 1 p HEX1[4]~output_o $end
$var wire 1 q HEX1[3]~output_o $end
$var wire 1 r HEX1[2]~output_o $end
$var wire 1 s HEX1[1]~output_o $end
$var wire 1 t HEX1[0]~output_o $end
$var wire 1 u HEX2[6]~output_o $end
$var wire 1 v HEX2[5]~output_o $end
$var wire 1 w HEX2[4]~output_o $end
$var wire 1 x HEX2[3]~output_o $end
$var wire 1 y HEX2[2]~output_o $end
$var wire 1 z HEX2[1]~output_o $end
$var wire 1 { HEX2[0]~output_o $end
$var wire 1 | HEX3[6]~output_o $end
$var wire 1 } HEX3[5]~output_o $end
$var wire 1 ~ HEX3[4]~output_o $end
$var wire 1 !! HEX3[3]~output_o $end
$var wire 1 "! HEX3[2]~output_o $end
$var wire 1 #! HEX3[1]~output_o $end
$var wire 1 $! HEX3[0]~output_o $end
$var wire 1 %! KEY[0]~input_o $end
$var wire 1 &! KEY[0]~inputclkctrl_outclk $end
$var wire 1 '! SW[1]~input_o $end
$var wire 1 (! counter1|temp~0_combout $end
$var wire 1 )! SW[0]~input_o $end
$var wire 1 *! SW[0]~inputclkctrl_outclk $end
$var wire 1 +! counter1|temp~q $end
$var wire 1 ,! counter2|temp~0_combout $end
$var wire 1 -! counter2|temp~q $end
$var wire 1 .! counter3|temp~0_combout $end
$var wire 1 /! counter3|temp~q $end
$var wire 1 0! counter3|temp~1_combout $end
$var wire 1 1! counter4|temp~0_combout $end
$var wire 1 2! counter4|temp~q $end
$var wire 1 3! counter5|temp~0_combout $end
$var wire 1 4! counter5|temp~q $end
$var wire 1 5! counter6|temp~1_combout $end
$var wire 1 6! counter6|temp~0_combout $end
$var wire 1 7! counter6|temp~2_combout $end
$var wire 1 8! counter6|temp~q $end
$var wire 1 9! counter7|temp~0_combout $end
$var wire 1 :! counter7|temp~q $end
$var wire 1 ;! counter9|temp~0_combout $end
$var wire 1 <! counter8|temp~0_combout $end
$var wire 1 =! counter8|temp~q $end
$var wire 1 >! counter9|temp~1_combout $end
$var wire 1 ?! counter9|temp~q $end
$var wire 1 @! counter10|temp~0_combout $end
$var wire 1 A! counter10|temp~1_combout $end
$var wire 1 B! counter10|temp~2_combout $end
$var wire 1 C! counter10|temp~q $end
$var wire 1 D! counter11|temp~0_combout $end
$var wire 1 E! counter11|temp~q $end
$var wire 1 F! counter12|temp~0_combout $end
$var wire 1 G! counter12|temp~q $end
$var wire 1 H! counter13|temp~0_combout $end
$var wire 1 I! counter13|temp~1_combout $end
$var wire 1 J! counter13|temp~q $end
$var wire 1 K! counter14|temp~0_combout $end
$var wire 1 L! counter14|temp~q $end
$var wire 1 M! counter15|temp~0_combout $end
$var wire 1 N! counter15|temp~q $end
$var wire 1 O! counter16|temp~0_combout $end
$var wire 1 P! counter16|temp~1_combout $end
$var wire 1 Q! counter16|temp~q $end
$var wire 1 R! decode0|display[6]~0_combout $end
$var wire 1 S! decode0|display[5]~1_combout $end
$var wire 1 T! decode0|display[4]~2_combout $end
$var wire 1 U! decode0|display[3]~3_combout $end
$var wire 1 V! decode0|display[2]~4_combout $end
$var wire 1 W! decode0|display[1]~5_combout $end
$var wire 1 X! decode0|display[0]~6_combout $end
$var wire 1 Y! decode1|display[6]~0_combout $end
$var wire 1 Z! decode1|display[5]~1_combout $end
$var wire 1 [! decode1|display[4]~2_combout $end
$var wire 1 \! decode1|display[3]~3_combout $end
$var wire 1 ]! decode1|display[2]~4_combout $end
$var wire 1 ^! decode1|display[1]~5_combout $end
$var wire 1 _! decode1|display[0]~6_combout $end
$var wire 1 `! decode2|display[6]~0_combout $end
$var wire 1 a! decode2|display[5]~1_combout $end
$var wire 1 b! decode2|display[4]~2_combout $end
$var wire 1 c! decode2|display[3]~3_combout $end
$var wire 1 d! decode2|display[2]~4_combout $end
$var wire 1 e! decode2|display[1]~5_combout $end
$var wire 1 f! decode2|display[0]~6_combout $end
$var wire 1 g! decode3|display[6]~0_combout $end
$var wire 1 h! decode3|display[5]~1_combout $end
$var wire 1 i! decode3|display[4]~2_combout $end
$var wire 1 j! decode3|display[3]~3_combout $end
$var wire 1 k! decode3|display[2]~4_combout $end
$var wire 1 l! decode3|display[1]~5_combout $end
$var wire 1 m! decode3|display[0]~6_combout $end
$upscope $end
$upscope $end
$enddefinitions $end
#0
$dumpvars
b0 !
b10 "
1)
0(
0'
0&
0%
0$
0#
10
0/
0.
0-
0,
0+
0*
17
06
05
04
03
02
01
1>
0=
0<
0;
0:
09
08
0N
0M
0L
0K
0J
0I
0H
0G
0F
0E
0D
0C
0B
0A
0@
0?
xO
0P
1Q
xR
1S
1T
1U
0V
0W
0X
0Y
0Z
0[
0\
0]
0^
0_
0`
0a
0b
0c
0d
0e
0f
1g
0h
0i
0j
0k
0l
0m
1n
0o
0p
0q
0r
0s
0t
1u
0v
0w
0x
0y
0z
0{
1|
0}
0~
0!!
0"!
0#!
0$!
0%!
0&!
1'!
1(!
0)!
0*!
0+!
0,!
0-!
0.!
0/!
00!
01!
02!
03!
04!
05!
06!
07!
08!
09!
0:!
0;!
0<!
0=!
0>!
0?!
0@!
0A!
0B!
0C!
0D!
0E!
0F!
0G!
0H!
0I!
0J!
0K!
0L!
0M!
0N!
0O!
0P!
0Q!
1R!
0S!
0T!
0U!
0V!
0W!
0X!
1Y!
0Z!
0[!
0\!
0]!
0^!
0_!
1`!
0a!
0b!
0c!
0d!
0e!
0f!
1g!
0h!
0i!
0j!
0k!
0l!
0m!
$end
#10000
b1 !
1%!
0O
1&!
1+!
1W
1,!
1N
1X!
1U!
1T!
1S!
0(!
1h
1i
1j
1m
1(
1'
1&
1#
#20000
b0 !
0%!
1O
0&!
#30000
b1 !
1%!
0O
1&!
1-!
0+!
0W
1X
0N
1M
0X!
1V!
0U!
0T!
0R!
1(!
0g
0i
0j
1k
0m
0)
0'
0&
1%
0#
#40000
b0 !
0%!
1O
0&!
#50000
b1 !
1%!
0O
1&!
1+!
1W
10!
1.!
0,!
1N
0V!
1T!
0(!
1i
0k
1'
0%
#60000
b0 !
0%!
1O
0&!
#70000
b1 !
1%!
0O
1&!
1/!
0-!
0+!
0W
0X
1Y
00!
0N
0M
1L
1X!
1U!
0S!
11!
1(!
0h
1j
1m
0(
1&
1#
01!
#80000
b11 "
b0 !
0%!
1)!
1*!
1O
0&!
0/!
0Y
0.!
0L
0X!
0U!
0T!
1R!
1g
0i
0j
0m
1)
0'
0&
0#
#90000
b1 !
1%!
0O
1&!
#100000
b10 "
b0 !
0%!
0)!
0*!
1O
0&!
#110000
b1 !
1%!
0O
1&!
1+!
1W
1,!
1N
1X!
1U!
1T!
1S!
0(!
1h
1i
1j
1m
1(
1'
1&
1#
#120000
b0 !
0%!
1O
0&!
#130000
b1 !
1%!
0O
1&!
1-!
0+!
0W
1X
0N
1M
0X!
1V!
0U!
0T!
0R!
1(!
0g
0i
0j
1k
0m
0)
0'
0&
1%
0#
#140000
b0 !
0%!
1O
0&!
#150000
b1 !
1%!
0O
1&!
1+!
1W
10!
1.!
0,!
1N
0V!
1T!
0(!
1i
0k
1'
0%
#160000
b0 !
0%!
1O
0&!
#170000
b1 !
1%!
0O
1&!
1/!
0-!
0+!
0W
0X
1Y
00!
0N
0M
1L
1X!
1U!
0S!
11!
1(!
0h
1j
1m
0(
1&
1#
01!
#180000
b0 !
0%!
1O
0&!
#190000
b1 !
1%!
0O
1&!
1+!
1W
1,!
1N
0X!
1W!
0U!
0(!
0j
1l
0m
0&
1$
0#
#200000
b0 !
0%!
1O
0&!
#210000
b1 !
1%!
0O
1&!
1-!
0+!
0W
1X
0N
1M
0T!
1(!
0i
0'
#220000
b0 !
0%!
1O
0&!
#230000
b1 !
1%!
0O
1&!
1+!
1W
10!
0.!
0,!
1N
0W!
1U!
1T!
1S!
1R!
0(!
1g
1h
1i
1j
0l
1)
1(
1'
1&
0$
11!
#240000
b0 !
0%!
1O
0&!
#250000
b1 !
1%!
0O
1&!
12!
0/!
0-!
0+!
0W
0X
0Y
1Z
00!
0N
0M
0L
1K
0U!
0T!
0S!
0R!
1(!
0g
0h
0i
0j
0)
0(
0'
0&
#260000
b0 !
0%!
1O
0&!
#270000
b1 !
1%!
0O
1&!
1+!
1W
1,!
1N
1T!
0(!
1i
1'
#280000
b0 !
0%!
1O
0&!
#290000
b1 !
1%!
0O
1&!
1-!
0+!
0W
1X
0N
1M
1U!
0T!
1(!
0i
1j
0'
1&
#300000
b0 !
0%!
1O
0&!
#310000
b1 !
1%!
0O
1&!
1+!
1W
10!
1.!
0,!
1N
1X!
1W!
0U!
0(!
0j
1l
1m
0&
1$
1#
#320000
b0 !
0%!
1O
0&!
#330000
b1 !
1%!
0O
1&!
1/!
0-!
0+!
0W
0X
1Y
00!
0N
0M
1L
0X!
1V!
1R!
13!
01!
1(!
1g
1k
0m
1)
1%
0#
03!
11!
#340000
b0 !
0%!
1O
0&!
#350000
b1 !
1%!
0O
1&!
1+!
1W
16!
1,!
1N
1X!
0W!
0V!
1S!
0R!
0(!
0g
1h
0k
0l
1m
0)
1(
0%
0$
1#
#360000
b0 !
0%!
1O
0&!
#370000
b1 !
1%!
0O
1&!
1-!
0+!
0W
1X
06!
0N
1M
0X!
1W!
1V!
0S!
1(!
0h
1k
1l
0m
0(
1%
1$
0#
#380000
b0 !
0%!
1O
0&!
#390000
b1 !
1%!
0O
1&!
1+!
1W
16!
10!
0.!
0,!
1N
1U!
0(!
1j
1&
13!
01!
#400000
b0 !
0%!
1O
0&!
#410000
b1 !
1%!
0O
1&!
14!
02!
0/!
0-!
0+!
0W
0X
0Y
0Z
1[
06!
00!
0N
0M
0L
0K
1J
1_!
1\!
1[!
1Z!
0W!
0V!
0U!
1R!
1(!
1g
0j
0k
0l
1o
1p
1q
1t
1)
0&
0%
0$
1/
1.
1-
1*
#420000
b0 !
0%!
1O
0&!
#430000
b1 !
1%!
0O
1&!
1+!
1W
1,!
1N
1X!
1U!
1T!
1S!
0(!
1h
1i
1j
1m
1(
1'
1&
1#
#440000
b0 !
0%!
1O
0&!
#450000
b1 !
1%!
0O
1&!
1-!
0+!
0W
1X
15!
0N
1M
0X!
1V!
0U!
0T!
0R!
1(!
0g
0i
0j
1k
0m
0)
0'
0&
1%
0#
#460000
b0 !
0%!
1O
0&!
#470000
b1 !
1%!
0O
1&!
1+!
1W
10!
1.!
0,!
1N
0V!
1T!
0(!
1i
0k
1'
0%
#480000
b0 !
0%!
1O
0&!
#490000
b1 !
1%!
0O
1&!
1/!
0-!
0+!
0W
0X
1Y
05!
00!
0N
0M
1L
1X!
1U!
0S!
11!
1(!
0h
1j
1m
0(
1&
1#
01!
#500000
b0 !
0%!
1O
0&!
#510000
b1 !
1%!
0O
1&!
1+!
1W
1,!
1N
0X!
1W!
0U!
0(!
0j
1l
0m
0&
1$
0#
#520000
b0 !
0%!
1O
0&!
#530000
b1 !
1%!
0O
1&!
1-!
0+!
0W
1X
15!
0N
1M
0T!
1(!
0i
0'
#540000
b0 !
0%!
1O
0&!
#550000
b1 !
1%!
0O
1&!
1+!
1W
10!
0.!
0,!
1N
0W!
1U!
1T!
1S!
1R!
0(!
1g
1h
1i
1j
0l
1)
1(
1'
1&
0$
11!
#560000
b0 !
0%!
1O
0&!
#570000
b1 !
1%!
0O
1&!
12!
0/!
0-!
0+!
0W
0X
0Y
1Z
05!
00!
0N
0M
0L
1K
0U!
0T!
0S!
0R!
1(!
0g
0h
0i
0j
0)
0(
0'
0&
#580000
b0 !
0%!
1O
0&!
#590000
b1 !
1%!
0O
1&!
1+!
1W
1,!
1N
1T!
0(!
1i
1'
#600000
b0 !
0%!
1O
0&!
#610000
b1 !
1%!
0O
1&!
1-!
0+!
0W
1X
15!
0N
1M
1U!
0T!
1(!
0i
1j
0'
1&
#620000
b0 !
0%!
1O
0&!
#630000
b1 !
1%!
0O
1&!
1+!
1W
10!
1.!
0,!
1N
1X!
1W!
0U!
0(!
0j
1l
1m
0&
1$
1#
#640000
b0 !
0%!
1O
0&!
#650000
b1 !
1%!
0O
1&!
1/!
0-!
0+!
0W
0X
1Y
05!
00!
0N
0M
1L
0X!
1V!
1R!
03!
01!
1(!
1g
1k
0m
1)
1%
0#
13!
11!
#660000
b0 !
0%!
1O
0&!
#670000
b1 !
1%!
0O
1&!
1+!
1W
16!
1,!
1N
1X!
0W!
0V!
1S!
0R!
0(!
0g
1h
0k
0l
1m
0)
1(
0%
0$
1#
#680000
b0 !
0%!
1O
0&!
#690000
b1 !
1%!
0O
1&!
1-!
0+!
0W
1X
15!
06!
0N
1M
0X!
1W!
1V!
0S!
1(!
0h
1k
1l
0m
0(
1%
1$
0#
#700000
b0 !
0%!
1O
0&!
#710000
b1 !
1%!
0O
1&!
1+!
1W
16!
10!
0.!
0,!
1N
1U!
0(!
1j
1&
17!
03!
01!
#720000
b0 !
0%!
1O
0&!
#730000
b1 !
1%!
0O
1&!
18!
04!
02!
0/!
0-!
0+!
0W
0X
0Y
0Z
0[
1\
1;!
05!
06!
00!
0N
0M
0L
0K
0J
1I
0_!
1]!
0\!
0[!
0Y!
19!
07!
0W!
0V!
0U!
1R!
1(!
1g
0j
0k
0l
0n
0p
0q
1r
0t
0;!
1)
0&
0%
0$
00
0.
0-
1,
0*
09!
17!
#740000
b0 !
0%!
1O
0&!
#750000
b1 !
1%!
0O
1&!
1+!
1W
1,!
1N
1X!
1U!
1T!
1S!
0(!
1h
1i
1j
1m
1(
1'
1&
1#
#760000
b0 !
0%!
1O
0&!
#770000
b1 !
1%!
0O
1&!
1-!
0+!
0W
1X
0N
1M
0X!
1V!
0U!
0T!
0R!
1(!
0g
0i
0j
1k
0m
0)
0'
0&
1%
0#
#780000
b0 !
0%!
1O
0&!
#790000
b1 !
1%!
0O
1&!
1+!
1W
10!
1.!
0,!
1N
0V!
1T!
0(!
1i
0k
1'
0%
#800000
b0 !
0%!
1O
0&!
#810000
b1 !
1%!
0O
1&!
1/!
0-!
0+!
0W
0X
1Y
00!
0N
0M
1L
1X!
1U!
0S!
11!
1(!
0h
1j
1m
0(
1&
1#
01!
#820000
b0 !
0%!
1O
0&!
#830000
b1 !
1%!
0O
1&!
1+!
1W
1,!
1N
0X!
1W!
0U!
0(!
0j
1l
0m
0&
1$
0#
#840000
b0 !
0%!
1O
0&!
#850000
b1 !
1%!
0O
1&!
1-!
0+!
0W
1X
0N
1M
0T!
1(!
0i
0'
#860000
b0 !
0%!
1O
0&!
#870000
b1 !
1%!
0O
1&!
1+!
1W
10!
0.!
0,!
1N
0W!
1U!
1T!
1S!
1R!
0(!
1g
1h
1i
1j
0l
1)
1(
1'
1&
0$
11!
#880000
b0 !
0%!
1O
0&!
#890000
b1 !
1%!
0O
1&!
12!
0/!
0-!
0+!
0W
0X
0Y
1Z
00!
0N
0M
0L
1K
0U!
0T!
0S!
0R!
1(!
0g
0h
0i
0j
0)
0(
0'
0&
#900000
b0 !
0%!
1O
0&!
#910000
b1 !
1%!
0O
1&!
1+!
1W
1,!
1N
1T!
0(!
1i
1'
#920000
b0 !
0%!
1O
0&!
#930000
b1 !
1%!
0O
1&!
1-!
0+!
0W
1X
0N
1M
1U!
0T!
1(!
0i
1j
0'
1&
#940000
b0 !
0%!
1O
0&!
#950000
b1 !
1%!
0O
1&!
1+!
1W
10!
1.!
0,!
1N
1X!
1W!
0U!
0(!
0j
1l
1m
0&
1$
1#
#960000
b0 !
0%!
1O
0&!
#970000
b1 !
1%!
0O
1&!
1/!
0-!
0+!
0W
0X
1Y
00!
0N
0M
1L
0X!
1V!
1R!
13!
01!
1(!
1g
1k
0m
1)
1%
0#
03!
11!
#980000
b0 !
0%!
1O
0&!
#990000
b1 !
1%!
0O
1&!
1+!
1W
16!
1,!
1N
1X!
0W!
0V!
1S!
0R!
0(!
0g
1h
0k
0l
1m
0)
1(
0%
0$
1#
#1000000
