\relax 
\@writefile{lot}{\contentsline {table}{\numberline {1}{\ignorespaces Display codes for Binary-to-Decimal conversion}}{1}}
\@writefile{lof}{\contentsline {figure}{\numberline {1}{\ignorespaces 4-bit Binary-to-Decimal Display}}{2}}
\@writefile{lot}{\contentsline {table}{\numberline {2}{\ignorespaces Full-adder truth table}}{2}}
\@writefile{lof}{\contentsline {figure}{\numberline {2}{\ignorespaces Ripple-Carry adder}}{3}}
\@writefile{lof}{\contentsline {figure}{\numberline {3}{\ignorespaces Decoder for Binary-to-Decimal}}{4}}
\@writefile{lof}{\contentsline {figure}{\numberline {4}{\ignorespaces Comparator}}{5}}
\@writefile{lof}{\contentsline {figure}{\numberline {5}{\ignorespaces Circuit A}}{5}}
\gdef\minted@oldcachelist{,
  default.pygstyle,
  4E5974462196D0E4E91A4452AA6E48A84C2662F8A8945F6FAB1F7C09A7B8F028.pygtex,
  AB512DE55077E8CBE623DE1C84534B44029ED89B0952A44D7E7B44F5AA3B79F3.pygtex,
  4F198335E6B9B052CDB63C3476DDC2E9132A1885E5000F4A45810D9DE6574E40.pygtex,
  6CF8111D00DE0B7F6C8693ABB9343784A98B45851E82AEF1E198F10D1C9FC639.pygtex,
  5A751B98E32215EE22FE76A84358F62F687C7F5AE53F8823078714EAA21BD7D9.pygtex,
  DD2F560E15AC90CA20067DA9AB4C444DB3385555890AE350C6BE001C7D214060.pygtex}
\@writefile{lof}{\contentsline {figure}{\numberline {6}{\ignorespaces Circuit B}}{6}}
\@writefile{lof}{\contentsline {figure}{\numberline {7}{\ignorespaces Full-Adder}}{6}}
\@writefile{lof}{\contentsline {figure}{\numberline {8}{\ignorespaces Ripple-Carry Adder}}{6}}
