\contentsline {section}{\numberline {1}Objectives}{2}
\contentsline {section}{\numberline {2}Equipment}{2}
\contentsline {section}{\numberline {3}Design}{2}
\contentsline {subsection}{\numberline {3.1}Initial Stage -- Scheduling \& Planning}{2}
\contentsline {subsection}{\numberline {3.2}Synthesis of Ideas}{3}
\contentsline {section}{\numberline {4}Test Procedure}{4}
\contentsline {section}{\numberline {5}Results}{4}
\contentsline {section}{\numberline {6}Conclusion}{4}
