\relax 
\@writefile{toc}{\contentsline {section}{\numberline {1}Objectives}{1}}
\@writefile{toc}{\contentsline {section}{\numberline {2}Equipment}{1}}
\@writefile{toc}{\contentsline {section}{\numberline {3}Design}{1}}
\@writefile{toc}{\contentsline {subsection}{\numberline {3.1}Initial Stage -- Scheduling \& Planning}{1}}
\@writefile{lot}{\contentsline {table}{\numberline {1}{\ignorespaces Schedule }}{1}}
\newlabel{tab:schedule}{{1}{1}}
\@writefile{toc}{\contentsline {subsection}{\numberline {3.2}Synthesis of Ideas}{1}}
\@writefile{lot}{\contentsline {table}{\numberline {2}{\ignorespaces Instruction Set }}{2}}
\newlabel{tab:InstSet}{{2}{2}}
\@writefile{lof}{\contentsline {figure}{\numberline {1}{\ignorespaces Datapath Diagram }}{2}}
\newlabel{fig:datapath}{{1}{2}}
\@writefile{toc}{\contentsline {subsection}{\numberline {3.3}Function Analysis}{3}}
\@writefile{lof}{\contentsline {figure}{\numberline {2}{\ignorespaces State Diagram }}{3}}
\newlabel{fig:state_diagram}{{2}{3}}
\@writefile{toc}{\contentsline {subsubsection}{\numberline {3.3.1}Instruction Formatting}{4}}
\@writefile{toc}{\contentsline {subsubsection}{\numberline {3.3.2}Memory}{4}}
\@writefile{toc}{\contentsline {section}{\numberline {4}Test Procedure}{5}}
\@writefile{toc}{\contentsline {subsection}{\numberline {4.1}Simulations}{5}}
\@writefile{toc}{\contentsline {subsubsection}{\numberline {4.1.1}Individual Components}{5}}
\@writefile{lof}{\contentsline {figure}{\numberline {3}{\ignorespaces Adder Simulation }}{5}}
\newlabel{fig:addersim}{{3}{5}}
\@writefile{lof}{\contentsline {figure}{\numberline {4}{\ignorespaces XOR Simulation }}{6}}
\newlabel{fig:xorsim}{{4}{6}}
\@writefile{lof}{\contentsline {figure}{\numberline {5}{\ignorespaces Tristate Buffer Simulation }}{6}}
\newlabel{fig:trisim}{{5}{6}}
\@writefile{toc}{\contentsline {subsection}{\numberline {4.2}Hardware}{6}}
\@writefile{toc}{\contentsline {subsection}{\numberline {4.3}Processor}{7}}
\gdef\minted@oldcachelist{,
  default.pygstyle}
\@writefile{toc}{\contentsline {section}{\numberline {5}Results}{8}}
\@writefile{toc}{\contentsline {section}{\numberline {6}Conclusion}{8}}
