\relax 
\@writefile{lof}{\contentsline {figure}{\numberline {1}{\ignorespaces Finite State Machine}}{3}}
\@writefile{lof}{\contentsline {figure}{\numberline {2}{\ignorespaces Finite State Machine with Process}}{4}}
\@writefile{lof}{\contentsline {figure}{\numberline {3}{\ignorespaces Password Detector}}{6}}
\gdef\minted@oldcachelist{,
  default.pygstyle,
  F4237272FE7D32CB07660A940EA783BAE2346D05460702D8E3A5FB6994C8F488.pygtex,
  8838996CC70B09716DFE72B52F8FA1D05E0831E7FF3B6729FDA8E603CC7679A3.pygtex,
  D2B7CE53F16A3E0A8BD6397BFFD1989B5E0831E7FF3B6729FDA8E603CC7679A3.pygtex,
  3187B15829377653888B37B535D35DE13897DEB93C395B8CE0274A66B3C65DDC.pygtex}
