\relax 
\@writefile{lof}{\contentsline {figure}{\numberline {1}{\ignorespaces Example 4-bit Counter used a basis to form the 16-bit counter}}{2}}
\@writefile{lof}{\contentsline {figure}{\numberline {2}{\ignorespaces 16-bit Counter}}{3}}
\@writefile{lof}{\contentsline {figure}{\numberline {3}{\ignorespaces Hexdecoder}}{4}}
\@writefile{lof}{\contentsline {figure}{\numberline {4}{\ignorespaces t\_trigger}}{4}}
\@writefile{lof}{\contentsline {figure}{\numberline {5}{\ignorespaces Generic N-bit Counter}}{5}}
\gdef\minted@oldcachelist{,
  default.pygstyle,
  FC5BA36E0316341D1D20DAD5F12DF55782D5E2745E89C896D5F9A1AC59E239DD.pygtex,
  DE6BA50A6ED53C7D3EFE4C62007B24EC6F8E58BA1808CE896E1DDFCEEF1250CB.pygtex,
  E6FA17478C4BA2C2DBD14F6D158C57267CEAC053C9DCF2004C5F731B67048365.pygtex,
  762A39898FA1C412F08A360CB0BCDB901D68D287D32170B9786750216FCFE417.pygtex,
  D7572996F12AC5190A43B187D5E08C7EE27AAA66F5D40458111EC3BE81A4CEA8.pygtex}
\@writefile{lof}{\contentsline {figure}{\numberline {6}{\ignorespaces One second Delayed Counter}}{6}}
