$comment
	File created using the following command:
		vcd file part4.msim.vcd -direction
$end
$date
	Tue Apr 14 21:19:00 2015
$end
$version
	ModelSim Version 10.3c
$end
$timescale
	1ps
$end

$scope module part4_vlg_vec_tst $end
$var reg 1 ! Clk $end
$var reg 1 " D $end
$var wire 1 # Qa $end
$var wire 1 $ Qb $end
$var wire 1 % Qc $end
$var wire 1 & sampler $end

$scope module i1 $end
$var wire 1 ' gnd $end
$var wire 1 ( vcc $end
$var wire 1 ) unknown $end
$var tri1 1 * devclrn $end
$var tri1 1 + devpor $end
$var tri1 1 , devoe $end
$var wire 1 - Qa~output_o $end
$var wire 1 . Qb~output_o $end
$var wire 1 / Qc~output_o $end
$var wire 1 0 D~input_o $end
$var wire 1 1 Clk~input_o $end
$var wire 1 2 Clk~inputclkctrl_outclk $end
$var wire 1 3 latch1|Q~combout $end
$var wire 1 4 latch2|Qm~combout $end
$var wire 1 5 latch2|Q~combout $end
$var wire 1 6 latch3|Q~combout $end
$upscope $end
$upscope $end
$enddefinitions $end
#0
$dumpvars
0!
0"
x#
x$
x%
x&
0'
1(
x)
1*
1+
1,
x-
x.
x/
00
01
02
x3
04
x5
x6
$end
#50000
1"
10
0&
14
#70000
1!
11
12
1&
15
13
1-
1.
1#
1$
#90000
0"
00
0&
03
0-
0#
#110000
1"
10
1&
13
1-
1#
#130000
0"
00
0&
03
0-
0#
#160000
0!
01
02
1&
04
06
0/
0%
#170000
1"
10
0&
14
#200000
0"
00
1&
04
#250000
1"
10
0&
14
#270000
0"
00
1&
04
#310000
1!
11
12
0&
05
0.
0$
#330000
1"
10
1&
13
1-
1#
#350000
0"
00
0&
03
0-
0#
#400000
1"
10
1&
13
1-
1#
#440000
0!
01
02
0&
14
16
1/
1%
#480000
0"
00
1&
04
#1000000
